<?xml version="1.0" encoding="UTF-8" standalone="no"?>
<!-- Created with Inkscape (http://www.inkscape.org/) -->

<svg
   xmlns:dc="http://purl.org/dc/elements/1.1/"
   xmlns:cc="http://creativecommons.org/ns#"
   xmlns:rdf="http://www.w3.org/1999/02/22-rdf-syntax-ns#"
   xmlns:svg="http://www.w3.org/2000/svg"
   xmlns="http://www.w3.org/2000/svg"
   xmlns:xlink="http://www.w3.org/1999/xlink"
   xmlns:sodipodi="http://sodipodi.sourceforge.net/DTD/sodipodi-0.dtd"
   xmlns:inkscape="http://www.inkscape.org/namespaces/inkscape"
   width="89.931633"
   height="90"
   id="svg2"
   version="1.1"
   inkscape:version="0.48.4 r9939"
   sodipodi:docname="ball-shadow.svg"
   inkscape:export-filename="C:\prg\winter-pong\data\ball-shadow.png"
   inkscape:export-xdpi="90"
   inkscape:export-ydpi="90">
  <defs
     id="defs4">
    <linearGradient
       id="linearGradient2988">
      <stop
         style="stop-color:#1f0f00;stop-opacity:1;"
         offset="0"
         id="stop2990" />
      <stop
         style="stop-color:#1f0f00;stop-opacity:0.49803922;"
         offset="1"
         id="stop2992" />
    </linearGradient>
    <radialGradient
       inkscape:collect="always"
       xlink:href="#linearGradient2988"
       id="radialGradient2994"
       cx="62.013718"
       cy="1015.256"
       fx="62.013718"
       fy="1015.256"
       r="44.785713"
       gradientTransform="matrix(-1.4395236,0.09656673,-0.03390771,-0.87127176,185.70893,1894.3736)"
       gradientUnits="userSpaceOnUse" />
    <filter
       inkscape:collect="always"
       id="filter3936"
       color-interpolation-filters="sRGB">
      <feGaussianBlur
         inkscape:collect="always"
         stdDeviation="1.7225312"
         id="feGaussianBlur3938" />
    </filter>
  </defs>
  <sodipodi:namedview
     id="base"
     pagecolor="#ffffff"
     bordercolor="#666666"
     borderopacity="1.0"
     inkscape:pageopacity="0.0"
     inkscape:pageshadow="2"
     inkscape:zoom="1.4"
     inkscape:cx="354.43772"
     inkscape:cy="-48.054288"
     inkscape:document-units="px"
     inkscape:current-layer="layer1"
     showgrid="false"
     inkscape:window-width="1920"
     inkscape:window-height="1024"
     inkscape:window-x="-4"
     inkscape:window-y="-4"
     inkscape:window-maximized="1"
     fit-margin-top="0"
     fit-margin-left="0"
     fit-margin-right="0"
     fit-margin-bottom="0" />
  <metadata
     id="metadata7">
    <rdf:RDF>
      <cc:Work
         rdf:about="">
        <dc:format>image/svg+xml</dc:format>
        <dc:type
           rdf:resource="http://purl.org/dc/dcmitype/StillImage" />
        <dc:title></dc:title>
        <dc:date>2013-10-15</dc:date>
        <dc:creator>
          <cc:Agent>
            <dc:title>Sebastian Zhorel</dc:title>
          </cc:Agent>
        </dc:creator>
      </cc:Work>
    </rdf:RDF>
  </metadata>
  <g
     inkscape:label="Ebene 1"
     inkscape:groupmode="layer"
     id="layer1"
     transform="matrix(0.8935663,0,0,0.81854757,7.4183876,-779.8879)">
    <path
       sodipodi:type="arc"
       style="fill:url(#radialGradient2994);fill-opacity:1;fill-rule:evenodd;stroke:#1f0f00;stroke-width:1.00031853;stroke-linecap:butt;stroke-linejoin:miter;stroke-miterlimit:4;stroke-opacity:0.24705882;stroke-dasharray:none;filter:url(#filter3936)"
       id="path2985"
       sodipodi:cx="41.42857"
       sodipodi:cy="1019.5051"
       sodipodi:rx="44.285713"
       sodipodi:ry="38.57143"
       d="m 85.714283,1019.5051 c 0,21.3024 -19.827389,38.5715 -44.285713,38.5715 -24.458324,0 -44.2857134,-17.2691 -44.2857134,-38.5715 0,-21.30239 19.8273894,-38.5714 44.2857134,-38.5714 24.458324,0 44.285713,17.26901 44.285713,38.5714 z"
       transform="matrix(0.84286759,-0.9453564,0.64198275,0.72004493,-647.40376,312.82109)" />
  </g>
</svg>
