<?xml version="1.0" encoding="UTF-8" standalone="no"?>
<!-- Created with Inkscape (http://www.inkscape.org/) -->

<svg
   xmlns:dc="http://purl.org/dc/elements/1.1/"
   xmlns:cc="http://creativecommons.org/ns#"
   xmlns:rdf="http://www.w3.org/1999/02/22-rdf-syntax-ns#"
   xmlns:svg="http://www.w3.org/2000/svg"
   xmlns="http://www.w3.org/2000/svg"
   xmlns:sodipodi="http://sodipodi.sourceforge.net/DTD/sodipodi-0.dtd"
   xmlns:inkscape="http://www.inkscape.org/namespaces/inkscape"
   width="256"
   height="320"
   id="svg2"
   version="1.1"
   inkscape:version="0.48.4 r9939"
   sodipodi:docname="gui-elements.svg"
   inkscape:export-filename="C:\prg\winter-pong\data\gui-elements.png"
   inkscape:export-xdpi="90"
   inkscape:export-ydpi="90">
  <defs
     id="defs4" />
  <sodipodi:namedview
     id="base"
     pagecolor="#ffffff"
     bordercolor="#666666"
     borderopacity="1.0"
     inkscape:pageopacity="0.0"
     inkscape:pageshadow="2"
     inkscape:zoom="2.2092842"
     inkscape:cx="102.53649"
     inkscape:cy="175.71016"
     inkscape:document-units="px"
     inkscape:current-layer="layer1"
     showgrid="true"
     showguides="true"
     inkscape:window-width="1920"
     inkscape:window-height="1024"
     inkscape:window-x="-4"
     inkscape:window-y="-4"
     inkscape:window-maximized="1">
    <inkscape:grid
       type="xygrid"
       id="grid2987"
       empspacing="64"
       visible="true"
       enabled="true"
       snapvisiblegridlinesonly="true" />
  </sodipodi:namedview>
  <metadata
     id="metadata7">
    <rdf:RDF>
      <cc:Work
         rdf:about="">
        <dc:format>image/svg+xml</dc:format>
        <dc:type
           rdf:resource="http://purl.org/dc/dcmitype/StillImage" />
        <dc:title></dc:title>
        <dc:creator>
          <cc:Agent>
            <dc:title>Sebastian Zhorel</dc:title>
          </cc:Agent>
        </dc:creator>
        <dc:date>2013-10-17</dc:date>
      </cc:Work>
    </rdf:RDF>
  </metadata>
  <g
     inkscape:label="Ebene 1"
     inkscape:groupmode="layer"
     id="layer1"
     transform="translate(0,-732.36217)">
    <rect
       y="993.77625"
       x="3.4140933"
       height="55.171814"
       width="3.1718137"
       id="rect2991"
       style="fill:#000000;stroke:none;stroke-width:0.82818632999999986;stroke-miterlimit:4;stroke-opacity:0;stroke-dasharray:none" />
    <rect
       style="fill:#ffff00;stroke:none;stroke-width:0.82818632999999986;stroke-miterlimit:4;stroke-opacity:0;stroke-dasharray:none"
       id="rect2989"
       width="3.1718137"
       height="55.171814"
       x="4.4140935"
       y="992.77625" />
    <rect
       style="fill:#000000;stroke:none;stroke-width:0.82818632999999986;stroke-miterlimit:4;stroke-opacity:0;stroke-dasharray:none"
       id="rect2996"
       width="3.1718137"
       height="55.171814"
       x="183.41409"
       y="993.77625" />
    <rect
       y="992.77625"
       x="184.41409"
       height="55.171814"
       width="3.1718137"
       id="rect2998"
       style="fill:#ffff00;stroke:none;stroke-width:0.82818632999999986;stroke-miterlimit:4;stroke-opacity:0;stroke-dasharray:none" />
    <rect
       y="1045.7761"
       x="67.414093"
       height="3.1718135"
       width="55.171814"
       id="rect3000"
       style="fill:#000000;stroke:none;stroke-width:0.82818632999999986;stroke-miterlimit:4;stroke-opacity:0;stroke-dasharray:none" />
    <rect
       style="fill:#ffff00;stroke:none;stroke-width:0.82818632999999986;stroke-miterlimit:4;stroke-opacity:0;stroke-dasharray:none"
       id="rect3002"
       width="55.171814"
       height="3.171814"
       x="68.414017"
       y="1044.776" />
    <rect
       style="fill:#000000;stroke:none;stroke-width:0.82818681000000005;stroke-miterlimit:4;stroke-opacity:0;stroke-dasharray:none"
       id="rect3004"
       width="55.171886"
       height="3.171813"
       x="195.41409"
       y="993.77631" />
    <rect
       y="992.77618"
       x="196.41402"
       height="3.1718135"
       width="55.171886"
       id="rect3006"
       style="fill:#ffff00;stroke:none;stroke-width:0.82818681000000005;stroke-miterlimit:4;stroke-opacity:0;stroke-dasharray:none" />
    <rect
       style="fill:#000000;stroke:none;stroke-width:0.82818632999999986;stroke-miterlimit:4;stroke-opacity:0;stroke-dasharray:none"
       id="rect3008"
       width="3.1718137"
       height="55.171814"
       x="3.4140933"
       y="865.77625" />
    <rect
       y="865.77631"
       x="3.4140935"
       height="3.171813"
       width="55.171886"
       id="rect3020"
       style="fill:#000000;stroke:none;stroke-width:0.82818681000000005;stroke-miterlimit:4;stroke-opacity:0;stroke-dasharray:none" />
    <rect
       y="864.77625"
       x="4.4140935"
       height="55.171814"
       width="3.1718137"
       id="rect3010"
       style="fill:#ffff00;stroke:none;stroke-width:0.82818632999999986;stroke-miterlimit:4;stroke-opacity:0;stroke-dasharray:none" />
    <rect
       y="865.77625"
       x="55.414093"
       height="55.171814"
       width="3.1718137"
       id="rect3012"
       style="fill:#000000;stroke:none;stroke-width:0.82818632999999986;stroke-miterlimit:4;stroke-opacity:0;stroke-dasharray:none" />
    <rect
       style="fill:#ffff00;stroke:none;stroke-width:0.82818632999999986;stroke-miterlimit:4;stroke-opacity:0;stroke-dasharray:none"
       id="rect3014"
       width="3.1718137"
       height="55.171814"
       x="56.414093"
       y="864.77625" />
    <rect
       style="fill:#000000;stroke:none;stroke-width:0.82818632999999986;stroke-miterlimit:4;stroke-opacity:0;stroke-dasharray:none"
       id="rect3016"
       width="55.171814"
       height="3.1718135"
       x="3.4140933"
       y="917.77631" />
    <rect
       y="916.77618"
       x="4.4140167"
       height="3.171814"
       width="55.171814"
       id="rect3018"
       style="fill:#ffff00;stroke:none;stroke-width:0.82818632999999986;stroke-miterlimit:4;stroke-opacity:0;stroke-dasharray:none" />
    <rect
       style="fill:#ffff00;stroke:none;stroke-width:0.82818681000000005;stroke-miterlimit:4;stroke-opacity:0;stroke-dasharray:none"
       id="rect3022"
       width="55.171886"
       height="3.1718135"
       x="4.4140172"
       y="864.77618" />
    <rect
       y="865.77625"
       x="67.414093"
       height="55.171814"
       width="3.1718137"
       id="rect3024"
       style="fill:#000000;stroke:none;stroke-width:0.82818632999999986;stroke-miterlimit:4;stroke-opacity:0;stroke-dasharray:none" />
    <rect
       style="fill:#000000;stroke:none;stroke-width:0.82818681000000005;stroke-miterlimit:4;stroke-opacity:0;stroke-dasharray:none"
       id="rect3026"
       width="55.171886"
       height="3.171813"
       x="67.414093"
       y="865.77631" />
    <rect
       style="fill:#ffff00;stroke:none;stroke-width:0.82818632999999986;stroke-miterlimit:4;stroke-opacity:0;stroke-dasharray:none"
       id="rect3028"
       width="3.1718137"
       height="55.171814"
       x="68.414093"
       y="864.77625" />
    <rect
       style="fill:#000000;stroke:none;stroke-width:0.82818632999999986;stroke-miterlimit:4;stroke-opacity:0;stroke-dasharray:none"
       id="rect3030"
       width="3.1718137"
       height="55.171814"
       x="119.41409"
       y="865.77625" />
    <rect
       y="864.77625"
       x="120.41409"
       height="55.171814"
       width="3.1718137"
       id="rect3032"
       style="fill:#ffff00;stroke:none;stroke-width:0.82818632999999986;stroke-miterlimit:4;stroke-opacity:0;stroke-dasharray:none" />
    <rect
       y="917.77631"
       x="67.414093"
       height="3.1718135"
       width="55.171814"
       id="rect3034"
       style="fill:#000000;stroke:none;stroke-width:0.82818632999999986;stroke-miterlimit:4;stroke-opacity:0;stroke-dasharray:none" />
    <rect
       style="fill:#ffff00;stroke:none;stroke-width:0.82818632999999986;stroke-miterlimit:4;stroke-opacity:0;stroke-dasharray:none"
       id="rect3036"
       width="55.171814"
       height="3.171814"
       x="68.414017"
       y="916.77618" />
    <rect
       y="864.77618"
       x="68.414017"
       height="3.1718135"
       width="55.171886"
       id="rect3038"
       style="fill:#ffff00;stroke:none;stroke-width:0.82818681000000005;stroke-miterlimit:4;stroke-opacity:0;stroke-dasharray:none" />
    <rect
       transform="matrix(0.70710678,0.70710678,-0.70710678,0.70710678,0,0)"
       style="fill:#000000;stroke:none;stroke-width:0.82818632999999986;stroke-miterlimit:4;stroke-opacity:0;stroke-dasharray:none"
       id="rect3044"
       width="3.1718137"
       height="55.171814"
       x="696.93805"
       y="537.29535" />
    <rect
       y="-726.10986"
       x="563.29535"
       height="55.171814"
       width="3.1718137"
       id="rect3046"
       style="fill:#000000;stroke:none;stroke-width:0.82818632999999986;stroke-miterlimit:4;stroke-opacity:0;stroke-dasharray:none"
       transform="matrix(-0.70710678,0.70710678,-0.70710678,-0.70710678,0,0)" />
    <rect
       y="535.88068"
       x="696.93805"
       height="55.171814"
       width="3.1718137"
       id="rect3040"
       style="fill:#ffff00;stroke:none;stroke-width:0.82818632999999986;stroke-miterlimit:4;stroke-opacity:0;stroke-dasharray:none"
       transform="matrix(0.70710678,0.70710678,-0.70710678,0.70710678,0,0)" />
    <rect
       transform="matrix(-0.70710678,0.70710678,-0.70710678,-0.70710678,0,0)"
       style="fill:#ffff00;stroke:none;stroke-width:0.82818632999999986;stroke-miterlimit:4;stroke-opacity:0;stroke-dasharray:none"
       id="rect3042"
       width="3.1718137"
       height="55.171814"
       x="561.88068"
       y="-726.10986" />
    <rect
       y="865.77625"
       x="131.41409"
       height="55.171814"
       width="3.1718137"
       id="rect3048"
       style="fill:#000000;stroke:none;stroke-width:0.82818632999999986;stroke-miterlimit:4;stroke-opacity:0;stroke-dasharray:none" />
    <rect
       style="fill:#000000;stroke:none;stroke-width:0.82818681000000005;stroke-miterlimit:4;stroke-opacity:0;stroke-dasharray:none"
       id="rect3050"
       width="55.171886"
       height="3.171813"
       x="131.41409"
       y="865.77631" />
    <rect
       style="fill:#ffff00;stroke:none;stroke-width:0.82818632999999986;stroke-miterlimit:4;stroke-opacity:0;stroke-dasharray:none"
       id="rect3052"
       width="3.1718137"
       height="55.171814"
       x="132.41409"
       y="864.77625" />
    <rect
       style="fill:#000000;stroke:none;stroke-width:0.82818632999999986;stroke-miterlimit:4;stroke-opacity:0;stroke-dasharray:none"
       id="rect3054"
       width="3.1718137"
       height="55.171814"
       x="183.41409"
       y="865.77625" />
    <rect
       y="864.77625"
       x="184.41409"
       height="55.171814"
       width="3.1718137"
       id="rect3056"
       style="fill:#ffff00;stroke:none;stroke-width:0.82818632999999986;stroke-miterlimit:4;stroke-opacity:0;stroke-dasharray:none" />
    <rect
       y="917.77631"
       x="131.41409"
       height="3.1718135"
       width="55.171814"
       id="rect3058"
       style="fill:#000000;stroke:none;stroke-width:0.82818632999999986;stroke-miterlimit:4;stroke-opacity:0;stroke-dasharray:none" />
    <rect
       style="fill:#ffff00;stroke:none;stroke-width:0.82818632999999986;stroke-miterlimit:4;stroke-opacity:0;stroke-dasharray:none"
       id="rect3060"
       width="55.171814"
       height="3.171814"
       x="132.41402"
       y="916.77618" />
    <rect
       y="864.77618"
       x="132.41402"
       height="3.1718135"
       width="55.171886"
       id="rect3062"
       style="fill:#ffff00;stroke:none;stroke-width:0.82818681000000005;stroke-miterlimit:4;stroke-opacity:0;stroke-dasharray:none" />
    <rect
       y="659.40533"
       x="594.60059"
       height="55.171814"
       width="3.1718137"
       id="rect3064"
       style="fill:#000000;stroke:none;stroke-width:0.82818632999999986;stroke-miterlimit:4;stroke-opacity:0;stroke-dasharray:none"
       transform="matrix(0.8660254,0.5,-0.5,0.8660254,0,0)" />
    <rect
       transform="matrix(0.70710678,-0.70710678,0.70710678,0.70710678,0,0)"
       style="fill:#000000;stroke:none;stroke-width:0.71160608999999997;stroke-miterlimit:4;stroke-opacity:0;stroke-dasharray:none"
       id="rect3076"
       width="3.288394"
       height="39.288395"
       x="-536.24817"
       y="723.42749" />
    <rect
       y="723.42743"
       x="-535.25824"
       height="39.288395"
       width="3.288394"
       id="rect3074"
       style="fill:#ffff00;stroke:none;stroke-width:0.71160608999999997;stroke-miterlimit:4;stroke-opacity:0;stroke-dasharray:none"
       transform="matrix(0.70710678,-0.70710678,0.70710678,0.70710678,0,0)" />
    <rect
       style="fill:#ffff00;stroke:none;stroke-width:0.82818632999999986;stroke-miterlimit:4;stroke-opacity:0;stroke-dasharray:none"
       id="rect3066"
       width="3.1718137"
       height="55.171814"
       x="595.60059"
       y="658.40533"
       transform="matrix(0.8660254,0.5,-0.5,0.8660254,0,0)" />
    <rect
       style="fill:#000000;stroke:none;stroke-width:0.67791562999999999;stroke-miterlimit:4;stroke-opacity:0;stroke-dasharray:none"
       id="rect3098"
       width="3.1327071"
       height="37.42831"
       x="-505.44196"
       y="615.79517"
       transform="matrix(0.673639,-0.73906055,0.673639,0.73906055,0,0)" />
    <rect
       transform="matrix(0.673639,-0.73906055,0.673639,0.73906055,0,0)"
       y="616.33447"
       x="-504.49677"
       height="37.42831"
       width="3.1327071"
       id="rect3100"
       style="fill:#ffff00;stroke:none;stroke-width:0.67791562999999999;stroke-miterlimit:4;stroke-opacity:0;stroke-dasharray:none" />
    <rect
       y="615.79523"
       x="-505.44196"
       height="3.1327076"
       width="37.42831"
       id="rect3102"
       style="fill:#000000;stroke:none;stroke-width:0.67791562999999999;stroke-miterlimit:4;stroke-opacity:0;stroke-dasharray:none"
       transform="matrix(0.673639,-0.73906055,0.673639,0.73906055,0,0)" />
    <rect
       transform="matrix(0.673639,-0.73906055,0.673639,0.73906055,0,0)"
       style="fill:#ffff00;stroke:none;stroke-width:0.67791562999999999;stroke-miterlimit:4;stroke-opacity:0;stroke-dasharray:none"
       id="rect3104"
       width="37.42831"
       height="3.1327076"
       x="-504.49677"
       y="616.33453" />
    <rect
       y="801.77625"
       x="3.4140933"
       height="55.171814"
       width="3.1718137"
       id="rect3106"
       style="fill:#000000;stroke:none;stroke-width:0.82818632999999986;stroke-miterlimit:4;stroke-opacity:0;stroke-dasharray:none" />
    <rect
       style="fill:#ffff00;stroke:none;stroke-width:0.82818632999999986;stroke-miterlimit:4;stroke-opacity:0;stroke-dasharray:none"
       id="rect3108"
       width="3.1718137"
       height="55.171814"
       x="4.4140935"
       y="800.77625" />
    <rect
       transform="matrix(0.673639,-0.73906055,0.673639,0.73906055,0,0)"
       y="566.06525"
       x="-555.17188"
       height="37.42831"
       width="3.1327071"
       id="rect3094"
       style="fill:#000000;stroke:none;stroke-width:0.67791562999999999;stroke-miterlimit:4;stroke-opacity:0;stroke-dasharray:none" />
    <rect
       style="fill:#ffff00;stroke:none;stroke-width:0.67791562999999999;stroke-miterlimit:4;stroke-opacity:0;stroke-dasharray:none"
       id="rect3090"
       width="3.1327071"
       height="37.42831"
       x="-554.22668"
       y="566.60455"
       transform="matrix(0.673639,-0.73906055,0.673639,0.73906055,0,0)" />
    <rect
       transform="matrix(0.673639,-0.73906055,0.673639,0.73906055,0,0)"
       style="fill:#000000;stroke:none;stroke-width:0.67791562999999999;stroke-miterlimit:4;stroke-opacity:0;stroke-dasharray:none"
       id="rect3096"
       width="37.42831"
       height="3.1327076"
       x="-555.17188"
       y="566.06531" />
    <rect
       y="566.60461"
       x="-554.22668"
       height="3.1327076"
       width="37.42831"
       id="rect3092"
       style="fill:#ffff00;stroke:none;stroke-width:0.67791562999999999;stroke-miterlimit:4;stroke-opacity:0;stroke-dasharray:none"
       transform="matrix(0.673639,-0.73906055,0.673639,0.73906055,0,0)" />
    <rect
       transform="matrix(0.673639,-0.73906055,0.673639,0.73906055,0,0)"
       y="626.92877"
       x="-494.30835"
       height="37.42831"
       width="3.1327071"
       id="rect3110"
       style="fill:#000000;stroke:none;stroke-width:0.67791562999999999;stroke-miterlimit:4;stroke-opacity:0;stroke-dasharray:none" />
    <rect
       style="fill:#ffff00;stroke:none;stroke-width:0.67791562999999999;stroke-miterlimit:4;stroke-opacity:0;stroke-dasharray:none"
       id="rect3112"
       width="3.1327071"
       height="37.42831"
       x="-493.36316"
       y="627.46808"
       transform="matrix(0.673639,-0.73906055,0.673639,0.73906055,0,0)" />
    <rect
       transform="matrix(0.673639,-0.73906055,0.673639,0.73906055,0,0)"
       style="fill:#000000;stroke:none;stroke-width:0.67791562999999999;stroke-miterlimit:4;stroke-opacity:0;stroke-dasharray:none"
       id="rect3114"
       width="37.42831"
       height="3.1327076"
       x="-494.30835"
       y="626.92883" />
    <rect
       y="627.46814"
       x="-493.36316"
       height="3.1327076"
       width="37.42831"
       id="rect3116"
       style="fill:#ffff00;stroke:none;stroke-width:0.67791562999999999;stroke-miterlimit:4;stroke-opacity:0;stroke-dasharray:none"
       transform="matrix(0.673639,-0.73906055,0.673639,0.73906055,0,0)" />
    <rect
       style="fill:#000000;stroke:none;stroke-width:0.67791562999999999;stroke-miterlimit:4;stroke-opacity:0;stroke-dasharray:none"
       id="rect3118"
       width="3.1327071"
       height="37.42831"
       x="-452.00085"
       y="669.23627"
       transform="matrix(0.673639,-0.73906055,0.673639,0.73906055,0,0)" />
    <rect
       transform="matrix(0.673639,-0.73906055,0.673639,0.73906055,0,0)"
       y="669.77557"
       x="-451.05566"
       height="37.42831"
       width="3.1327071"
       id="rect3120"
       style="fill:#ffff00;stroke:none;stroke-width:0.67791562999999999;stroke-miterlimit:4;stroke-opacity:0;stroke-dasharray:none" />
    <rect
       y="669.23633"
       x="-452.00085"
       height="3.1327076"
       width="37.42831"
       id="rect3122"
       style="fill:#000000;stroke:none;stroke-width:0.67791562999999999;stroke-miterlimit:4;stroke-opacity:0;stroke-dasharray:none"
       transform="matrix(0.673639,-0.73906055,0.673639,0.73906055,0,0)" />
    <rect
       transform="matrix(0.673639,-0.73906055,0.673639,0.73906055,0,0)"
       style="fill:#ffff00;stroke:none;stroke-width:0.67791562999999999;stroke-miterlimit:4;stroke-opacity:0;stroke-dasharray:none"
       id="rect3124"
       width="37.42831"
       height="3.1327076"
       x="-451.05566"
       y="669.77563" />
    <rect
       transform="matrix(0.673639,-0.73906055,0.673639,0.73906055,0,0)"
       y="577.19885"
       x="-544.03833"
       height="37.42831"
       width="3.1327071"
       id="rect3126"
       style="fill:#000000;stroke:none;stroke-width:0.67791562999999999;stroke-miterlimit:4;stroke-opacity:0;stroke-dasharray:none" />
    <rect
       style="fill:#ffff00;stroke:none;stroke-width:0.67791562999999999;stroke-miterlimit:4;stroke-opacity:0;stroke-dasharray:none"
       id="rect3128"
       width="3.1327071"
       height="37.42831"
       x="-543.09314"
       y="577.73816"
       transform="matrix(0.673639,-0.73906055,0.673639,0.73906055,0,0)" />
    <rect
       transform="matrix(0.673639,-0.73906055,0.673639,0.73906055,0,0)"
       style="fill:#000000;stroke:none;stroke-width:0.67791562999999999;stroke-miterlimit:4;stroke-opacity:0;stroke-dasharray:none"
       id="rect3130"
       width="37.42831"
       height="3.1327076"
       x="-544.03833"
       y="577.19891" />
    <rect
       y="577.73822"
       x="-543.09314"
       height="3.1327076"
       width="37.42831"
       id="rect3132"
       style="fill:#ffff00;stroke:none;stroke-width:0.67791562999999999;stroke-miterlimit:4;stroke-opacity:0;stroke-dasharray:none"
       transform="matrix(0.673639,-0.73906055,0.673639,0.73906055,0,0)" />
    <rect
       transform="scale(-1,1)"
       style="fill:#000000;stroke:none;stroke-width:0.82818632999999986;stroke-miterlimit:4;stroke-opacity:0;stroke-dasharray:none"
       id="rect3144"
       width="3.1718137"
       height="55.171814"
       x="-186.58586"
       y="737.77625" />
    <rect
       style="fill:#000000;stroke:none;stroke-width:0.67791562999999999;stroke-miterlimit:4;stroke-opacity:0;stroke-dasharray:none"
       id="rect3146"
       width="3.1327071"
       height="37.42831"
       x="-652.89874"
       y="381.74194"
       transform="matrix(-0.673639,-0.73906055,-0.673639,0.73906055,0,0)" />
    <rect
       y="381.742"
       x="-652.89874"
       height="3.1327076"
       width="37.42831"
       id="rect3148"
       style="fill:#000000;stroke:none;stroke-width:0.67791562999999999;stroke-miterlimit:4;stroke-opacity:0;stroke-dasharray:none"
       transform="matrix(-0.673639,-0.73906055,-0.673639,0.73906055,0,0)" />
    <rect
       y="736.77612"
       x="-187.58589"
       height="55.171814"
       width="3.1718137"
       id="rect3134"
       style="fill:#ffff00;stroke:none;stroke-width:0.82818632999999986;stroke-miterlimit:4;stroke-opacity:0;stroke-dasharray:none"
       transform="scale(-1,1)" />
    <rect
       style="fill:#000000;stroke:none;stroke-width:0.67791562999999999;stroke-miterlimit:4;stroke-opacity:0;stroke-dasharray:none"
       id="rect3150"
       width="3.1327071"
       height="37.42831"
       x="-641.7652"
       y="392.87555"
       transform="matrix(-0.673639,-0.73906055,-0.673639,0.73906055,0,0)" />
    <rect
       transform="matrix(-0.673639,-0.73906055,-0.673639,0.73906055,0,0)"
       y="380.79675"
       x="-653.43805"
       height="37.42831"
       width="3.1327071"
       id="rect3136"
       style="fill:#ffff00;stroke:none;stroke-width:0.67791562999999999;stroke-miterlimit:4;stroke-opacity:0;stroke-dasharray:none" />
    <rect
       y="392.87561"
       x="-641.7652"
       height="3.1327076"
       width="37.42831"
       id="rect3152"
       style="fill:#000000;stroke:none;stroke-width:0.67791562999999999;stroke-miterlimit:4;stroke-opacity:0;stroke-dasharray:none"
       transform="matrix(-0.673639,-0.73906055,-0.673639,0.73906055,0,0)" />
    <rect
       transform="matrix(-0.673639,-0.73906055,-0.673639,0.73906055,0,0)"
       style="fill:#ffff00;stroke:none;stroke-width:0.67791562999999999;stroke-miterlimit:4;stroke-opacity:0;stroke-dasharray:none"
       id="rect3138"
       width="37.42831"
       height="3.1327076"
       x="-653.43805"
       y="380.79681" />
    <rect
       transform="matrix(-0.673639,-0.73906055,-0.673639,0.73906055,0,0)"
       y="391.93036"
       x="-642.3045"
       height="37.42831"
       width="3.1327071"
       id="rect3140"
       style="fill:#ffff00;stroke:none;stroke-width:0.67791562999999999;stroke-miterlimit:4;stroke-opacity:0;stroke-dasharray:none" />
    <rect
       transform="matrix(-0.673639,-0.73906055,-0.673639,0.73906055,0,0)"
       style="fill:#ffff00;stroke:none;stroke-width:0.67791562999999999;stroke-miterlimit:4;stroke-opacity:0;stroke-dasharray:none"
       id="rect3142"
       width="37.42831"
       height="3.1327076"
       x="-642.3045"
       y="391.93042" />
    <rect
       transform="matrix(-0.673639,-0.73906055,-0.673639,0.73906055,0,0)"
       y="431.47183"
       x="-603.16882"
       height="37.42831"
       width="3.1327071"
       id="rect3154"
       style="fill:#000000;stroke:none;stroke-width:0.67791562999999999;stroke-miterlimit:4;stroke-opacity:0;stroke-dasharray:none" />
    <rect
       transform="matrix(-0.673639,-0.73906055,-0.673639,0.73906055,0,0)"
       style="fill:#000000;stroke:none;stroke-width:0.67791562999999999;stroke-miterlimit:4;stroke-opacity:0;stroke-dasharray:none"
       id="rect3156"
       width="37.42831"
       height="3.1327076"
       x="-603.16882"
       y="431.47189" />
    <rect
       transform="matrix(-0.673639,-0.73906055,-0.673639,0.73906055,0,0)"
       y="442.60544"
       x="-592.03528"
       height="37.42831"
       width="3.1327071"
       id="rect3158"
       style="fill:#000000;stroke:none;stroke-width:0.67791562999999999;stroke-miterlimit:4;stroke-opacity:0;stroke-dasharray:none" />
    <rect
       transform="matrix(-0.673639,-0.73906055,-0.673639,0.73906055,0,0)"
       style="fill:#000000;stroke:none;stroke-width:0.67791562999999999;stroke-miterlimit:4;stroke-opacity:0;stroke-dasharray:none"
       id="rect3160"
       width="37.42831"
       height="3.1327076"
       x="-592.03528"
       y="442.6055" />
    <rect
       style="fill:#ffff00;stroke:none;stroke-width:0.67791562999999999;stroke-miterlimit:4;stroke-opacity:0;stroke-dasharray:none"
       id="rect3162"
       width="3.1327071"
       height="37.42831"
       x="-592.57458"
       y="441.66025"
       transform="matrix(-0.673639,-0.73906055,-0.673639,0.73906055,0,0)" />
    <rect
       y="441.66031"
       x="-592.57458"
       height="3.1327076"
       width="37.42831"
       id="rect3164"
       style="fill:#ffff00;stroke:none;stroke-width:0.67791562999999999;stroke-miterlimit:4;stroke-opacity:0;stroke-dasharray:none"
       transform="matrix(-0.673639,-0.73906055,-0.673639,0.73906055,0,0)" />
    <rect
       style="fill:#ffff00;stroke:none;stroke-width:0.67791562999999999;stroke-miterlimit:4;stroke-opacity:0;stroke-dasharray:none"
       id="rect3166"
       width="3.1327071"
       height="37.42831"
       x="-603.70813"
       y="430.52667"
       transform="matrix(-0.673639,-0.73906055,-0.673639,0.73906055,0,0)" />
    <rect
       y="430.52673"
       x="-603.70813"
       height="3.1327076"
       width="37.42831"
       id="rect3168"
       style="fill:#ffff00;stroke:none;stroke-width:0.67791562999999999;stroke-miterlimit:4;stroke-opacity:0;stroke-dasharray:none"
       transform="matrix(-0.673639,-0.73906055,-0.673639,0.73906055,0,0)" />
    <rect
       style="fill:#000000;stroke:none;stroke-width:0.67791562999999999;stroke-miterlimit:4;stroke-opacity:0;stroke-dasharray:none"
       id="rect3170"
       width="3.1327071"
       height="37.42831"
       x="-551.21222"
       y="483.4285"
       transform="matrix(-0.673639,-0.73906055,-0.673639,0.73906055,0,0)" />
    <rect
       y="483.42856"
       x="-551.21222"
       height="3.1327076"
       width="37.42831"
       id="rect3172"
       style="fill:#000000;stroke:none;stroke-width:0.67791562999999999;stroke-miterlimit:4;stroke-opacity:0;stroke-dasharray:none"
       transform="matrix(-0.673639,-0.73906055,-0.673639,0.73906055,0,0)" />
    <rect
       transform="matrix(-0.673639,-0.73906055,-0.673639,0.73906055,0,0)"
       y="482.48334"
       x="-551.75153"
       height="37.42831"
       width="3.1327071"
       id="rect3174"
       style="fill:#ffff00;stroke:none;stroke-width:0.67791562999999999;stroke-miterlimit:4;stroke-opacity:0;stroke-dasharray:none" />
    <rect
       transform="matrix(-0.673639,-0.73906055,-0.673639,0.73906055,0,0)"
       style="fill:#ffff00;stroke:none;stroke-width:0.67791562999999999;stroke-miterlimit:4;stroke-opacity:0;stroke-dasharray:none"
       id="rect3176"
       width="37.42831"
       height="3.1327076"
       x="-551.75153"
       y="482.4834" />
    <rect
       style="fill:#000000;stroke:none;stroke-width:0.82818632999999986;stroke-miterlimit:4;stroke-opacity:0;stroke-dasharray:none"
       id="rect3178"
       width="3.1718137"
       height="55.171814"
       x="3.4140933"
       y="929.77625" />
    <rect
       y="981.77631"
       x="3.4140933"
       height="3.1718135"
       width="55.171814"
       id="rect3186"
       style="fill:#000000;stroke:none;stroke-width:0.82818632999999986;stroke-miterlimit:4;stroke-opacity:0;stroke-dasharray:none" />
    <rect
       y="928.77625"
       x="4.4140935"
       height="55.171814"
       width="3.1718137"
       id="rect3180"
       style="fill:#ffff00;stroke:none;stroke-width:0.82818632999999986;stroke-miterlimit:4;stroke-opacity:0;stroke-dasharray:none" />
    <rect
       style="fill:#000000;stroke:none;stroke-width:0.82818632999999986;stroke-miterlimit:4;stroke-opacity:0;stroke-dasharray:none"
       id="rect3182"
       width="55.171814"
       height="3.1718135"
       x="67.414093"
       y="981.77631" />
    <rect
       style="fill:#000000;stroke:none;stroke-width:0.82818632999999986;stroke-miterlimit:4;stroke-opacity:0;stroke-dasharray:none"
       id="rect3194"
       width="3.1718137"
       height="55.171814"
       x="119.41409"
       y="929.77625" />
    <rect
       y="980.77618"
       x="68.414017"
       height="3.171814"
       width="55.171814"
       id="rect3184"
       style="fill:#ffff00;stroke:none;stroke-width:0.82818632999999986;stroke-miterlimit:4;stroke-opacity:0;stroke-dasharray:none" />
    <rect
       style="fill:#ffff00;stroke:none;stroke-width:0.82818632999999986;stroke-miterlimit:4;stroke-opacity:0;stroke-dasharray:none"
       id="rect3188"
       width="55.171814"
       height="3.171814"
       x="4.4140167"
       y="980.77618" />
    <rect
       y="929.77625"
       x="183.41409"
       height="55.171814"
       width="3.1718137"
       id="rect3190"
       style="fill:#000000;stroke:none;stroke-width:0.82818632999999986;stroke-miterlimit:4;stroke-opacity:0;stroke-dasharray:none" />
    <rect
       style="fill:#000000;stroke:none;stroke-width:0.82818681000000005;stroke-miterlimit:4;stroke-opacity:0;stroke-dasharray:none"
       id="rect3202"
       width="55.171886"
       height="3.171813"
       x="131.41409"
       y="929.77631" />
    <rect
       style="fill:#ffff00;stroke:none;stroke-width:0.82818632999999986;stroke-miterlimit:4;stroke-opacity:0;stroke-dasharray:none"
       id="rect3192"
       width="3.1718137"
       height="55.171814"
       x="184.41409"
       y="928.77625" />
    <rect
       y="928.77625"
       x="120.41409"
       height="55.171814"
       width="3.1718137"
       id="rect3196"
       style="fill:#ffff00;stroke:none;stroke-width:0.82818632999999986;stroke-miterlimit:4;stroke-opacity:0;stroke-dasharray:none" />
    <rect
       y="929.77631"
       x="195.41409"
       height="3.171813"
       width="55.171886"
       id="rect3198"
       style="fill:#000000;stroke:none;stroke-width:0.82818681000000005;stroke-miterlimit:4;stroke-opacity:0;stroke-dasharray:none" />
    <rect
       y="929.77625"
       x="195.41409"
       height="55.171814"
       width="3.1718137"
       id="rect3206"
       style="fill:#000000;stroke:none;stroke-width:0.82818632999999986;stroke-miterlimit:4;stroke-opacity:0;stroke-dasharray:none" />
    <rect
       style="fill:#ffff00;stroke:none;stroke-width:0.82818681000000005;stroke-miterlimit:4;stroke-opacity:0;stroke-dasharray:none"
       id="rect3200"
       width="55.171886"
       height="3.1718135"
       x="196.41402"
       y="928.77618" />
    <rect
       y="928.77618"
       x="132.41402"
       height="3.1718135"
       width="55.171886"
       id="rect3204"
       style="fill:#ffff00;stroke:none;stroke-width:0.82818681000000005;stroke-miterlimit:4;stroke-opacity:0;stroke-dasharray:none" />
    <rect
       style="fill:#ffff00;stroke:none;stroke-width:0.82818632999999986;stroke-miterlimit:4;stroke-opacity:0;stroke-dasharray:none"
       id="rect3208"
       width="3.1718137"
       height="55.171814"
       x="196.41409"
       y="928.77625" />
    <rect
       transform="matrix(-0.73906055,-0.673639,0.73906055,-0.673639,0,0)"
       y="-474.33707"
       x="-776.07147"
       height="37.42831"
       width="3.1327071"
       id="rect3210"
       style="fill:#000000;stroke:none;stroke-width:0.67791562999999999;stroke-miterlimit:4;stroke-opacity:0;stroke-dasharray:none" />
    <rect
       style="fill:#ffff00;stroke:none;stroke-width:0.67791562999999999;stroke-miterlimit:4;stroke-opacity:0;stroke-dasharray:none"
       id="rect3212"
       width="3.1327071"
       height="37.42831"
       x="-776.52533"
       y="-473.43784"
       transform="matrix(-0.73906055,-0.673639,0.73906055,-0.673639,0,0)" />
    <rect
       transform="matrix(-0.73906055,-0.673639,0.73906055,-0.673639,0,0)"
       style="fill:#000000;stroke:none;stroke-width:0.67791562999999999;stroke-miterlimit:4;stroke-opacity:0;stroke-dasharray:none"
       id="rect3214"
       width="37.42831"
       height="3.1327076"
       x="-776.07147"
       y="-474.33701" />
    <rect
       y="-473.43777"
       x="-776.52533"
       height="3.1327076"
       width="37.42831"
       id="rect3216"
       style="fill:#ffff00;stroke:none;stroke-width:0.67791562999999999;stroke-miterlimit:4;stroke-opacity:0;stroke-dasharray:none"
       transform="matrix(-0.73906055,-0.673639,0.73906055,-0.673639,0,0)" />
    <rect
       transform="matrix(-0.73906055,0.673639,0.73906055,0.673639,0,0)"
       y="708.28772"
       x="406.55334"
       height="37.42831"
       width="3.1327071"
       id="rect3218"
       style="fill:#000000;stroke:none;stroke-width:0.67791562999999999;stroke-miterlimit:4;stroke-opacity:0;stroke-dasharray:none" />
    <rect
       transform="matrix(-0.73906055,0.673639,0.73906055,0.673639,0,0)"
       style="fill:#000000;stroke:none;stroke-width:0.67791562999999999;stroke-miterlimit:4;stroke-opacity:0;stroke-dasharray:none"
       id="rect3220"
       width="37.42831"
       height="3.1327076"
       x="406.55334"
       y="708.28778" />
    <rect
       style="fill:#ffff00;stroke:none;stroke-width:0.67791562999999999;stroke-miterlimit:4;stroke-opacity:0;stroke-dasharray:none"
       id="rect3222"
       width="3.1327071"
       height="37.42831"
       x="405.65414"
       y="708.74158"
       transform="matrix(-0.73906055,0.673639,0.73906055,0.673639,0,0)" />
    <rect
       y="708.74164"
       x="405.65414"
       height="3.1327076"
       width="37.42831"
       id="rect3224"
       style="fill:#ffff00;stroke:none;stroke-width:0.67791562999999999;stroke-miterlimit:4;stroke-opacity:0;stroke-dasharray:none"
       transform="matrix(-0.73906055,0.673639,0.73906055,0.673639,0,0)" />
  </g>
</svg>
